<svg width="30" height="30" viewBox="0 0 30 30" fill="none" xmlns="http://www.w3.org/2000/svg">
<rect width="30" height="30" rx="4" fill="#2AA7C3"/>
<path d="M21 10.9669L12.7714 19.1954L9 15.424L9.96686 14.4571L12.7714 17.2549L20.0331 10L21 10.9669Z" fill="white"/>
</svg>
