<svg width="5" height="9" viewBox="0 0 5 9" fill="none" xmlns="http://www.w3.org/2000/svg">
<path d="M4.995 1.81521L2.3175 4.49996L4.99499 7.18472L4.16666 8.00945L0.666662 4.49996L4.16666 0.990478L4.995 1.81521Z" fill="#97B0B5"/>
</svg>
