<svg width="12" height="6" viewBox="0 0 12 6" fill="none" xmlns="http://www.w3.org/2000/svg">
<path fill-rule="evenodd" clip-rule="evenodd" d="M10.3753 0.21933L6.00031 3.71933L1.62531 0.21933C1.34629 -0.00396131 0.969335 -0.0614329 0.636447 0.0685638C0.303559 0.198561 0.0653103 0.496276 0.0114468 0.849564C-0.0424167 1.20285 0.0962882 1.55804 0.375313 1.78133L5.37531 5.78133C5.74065 6.07383 6.25998 6.07383 6.62531 5.78133L11.6253 1.78133C12.0566 1.43615 12.1265 0.806664 11.7813 0.37533C11.4361 -0.0560047 10.8066 -0.125848 10.3753 0.21933Z" fill="#222727"/>
</svg>
