<svg width="20" height="20" viewBox="0 0 20 20" fill="none" xmlns="http://www.w3.org/2000/svg">
<path d="M17.6349 8.9378L18.7703 9.58958C18.8403 9.62971 18.8983 9.68653 18.9386 9.7545C18.9788 9.82247 19 9.89927 19 9.9774C19 10.0555 18.9788 10.1323 18.9386 10.2003C18.8983 10.2683 18.8403 10.3251 18.7703 10.3652L10 15.4014L1.2297 10.3652C1.15965 10.3251 1.10167 10.2683 1.06142 10.2003C1.02116 10.1323 1 10.0555 1 9.9774C1 9.89927 1.02116 9.82247 1.06142 9.7545C1.10167 9.68653 1.15965 9.62971 1.2297 9.58958L2.36506 8.9378L10 13.3222L17.6349 8.9378ZM17.6349 13.1866L18.7703 13.8384C18.8403 13.8785 18.8983 13.9354 18.9386 14.0033C18.9788 14.0713 19 14.1481 19 14.2262C19 14.3043 18.9788 14.3811 18.9386 14.4491C18.8983 14.5171 18.8403 14.5739 18.7703 14.614L10.4865 19.3709C10.3395 19.4554 10.1714 19.5 10 19.5C9.82861 19.5 9.66046 19.4554 9.51355 19.3709L1.2297 14.614C1.15965 14.5739 1.10167 14.5171 1.06142 14.4491C1.02116 14.3811 1 14.3043 1 14.2262C1 14.1481 1.02116 14.0713 1.06142 14.0033C1.10167 13.9354 1.15965 13.8785 1.2297 13.8384L2.36506 13.1866L10 17.571L17.6349 13.1866ZM10.4855 0.629101L18.7703 5.38597C18.8403 5.4261 18.8983 5.48292 18.9386 5.55089C18.9788 5.61886 19 5.69565 19 5.77378C19 5.85191 18.9788 5.92871 18.9386 5.99668C18.8983 6.06465 18.8403 6.12147 18.7703 6.1616L10 11.1978L1.2297 6.1616C1.15965 6.12147 1.10167 6.06465 1.06142 5.99668C1.02116 5.92871 1 5.85191 1 5.77378C1 5.69565 1.02116 5.61886 1.06142 5.55089C1.10167 5.48292 1.15965 5.4261 1.2297 5.38597L9.51355 0.629101C9.66046 0.544627 9.82861 0.5 10 0.5C10.1714 0.5 10.3395 0.544627 10.4865 0.629101H10.4855Z" fill="#ACC0C4"/>
</svg>
