<svg width="20" height="20" viewBox="0 0 20 20" fill="none" xmlns="http://www.w3.org/2000/svg">
<path fill-rule="evenodd" clip-rule="evenodd" d="M9.95489 9.30769C12.2821 9.30769 14.1687 7.44795 14.1687 5.15384C14.1687 2.85974 12.2821 1 9.95489 1C7.62764 1 5.74103 2.85974 5.74103 5.15384C5.74103 7.44795 7.62764 9.30769 9.95489 9.30769ZM9.95499 10.4945C6.48988 10.4945 3.44344 12.2614 1.69229 14.9312C3.61786 17.4051 6.64763 19 10.0553 19C13.3984 19 16.3778 17.465 18.3077 15.0709C16.5721 12.3233 13.4802 10.4945 9.95499 10.4945Z" fill="#ACC0C4"/>
</svg>
