<svg width="22" height="30" viewBox="0 0 42 50" fill="none" xmlns="http://www.w3.org/2000/svg">
<path d="M35.319 35.0336L21 49.3396L6.68101 35.0336C3.84902 32.2041 1.92042 28.5992 1.13909 24.6747C0.357758 20.7501 0.75879 16.6822 2.29147 12.9854C3.82415 9.28853 6.41965 6.1288 9.74974 3.90572C13.0798 1.68265 16.9949 0.496094 21 0.496094C25.0051 0.496094 28.9202 1.68265 32.2503 3.90572C35.5804 6.1288 38.1759 9.28853 39.7085 12.9854C41.2412 16.6822 41.6423 20.7501 40.8609 24.6747C40.0796 28.5992 38.151 32.2041 35.319 35.0336ZM21 25.2235C22.1935 25.2235 23.3381 24.7498 24.182 23.9067C25.0259 23.0635 25.5 21.92 25.5 20.7276C25.5 19.5352 25.0259 18.3916 24.182 17.5485C23.3381 16.7053 22.1935 16.2316 21 16.2316C19.8065 16.2316 18.6619 16.7053 17.818 17.5485C16.9741 18.3916 16.5 19.5352 16.5 20.7276C16.5 21.92 16.9741 23.0635 17.818 23.9067C18.6619 24.7498 19.8065 25.2235 21 25.2235Z" fill="#189B85"/>
</svg>
