<svg width="20" height="20" viewBox="0 0 20 20" fill="none" xmlns="http://www.w3.org/2000/svg">
<path fill-rule="evenodd" clip-rule="evenodd" d="M9.95498 9.30769C12.2822 9.30769 14.1688 7.44795 14.1688 5.15384C14.1688 2.85974 12.2822 1 9.95498 1C7.62773 1 5.74112 2.85974 5.74112 5.15384C5.74112 7.44795 7.62773 9.30769 9.95498 9.30769ZM9.95508 10.4945C6.48998 10.4945 3.44353 12.2614 1.69238 14.9312C3.61796 17.4051 6.64772 19 10.0554 19C13.3985 19 16.3779 17.465 18.3078 15.0709C16.5722 12.3233 13.4803 10.4945 9.95508 10.4945Z" fill="#97B0B5"/>
</svg>
