<svg width="59" height="40" viewBox="0 0 59 40" fill="none" xmlns="http://www.w3.org/2000/svg">
<path d="M1 9.59432C1 7.80566 2.34865 6.30479 4.12713 6.11424L52.1271 0.971383C54.1959 0.749735 56 2.37091 56 4.45147V28.4057C56 30.1943 54.6514 31.6952 52.8729 31.8858L4.87286 37.0286C2.80415 37.2503 1 35.6291 1 33.5485V9.59432Z" fill="#9EADB4" stroke="#A3ABAF"/>
<path d="M3 11.5943C3 9.80566 4.34865 8.30479 6.12713 8.11424L54.1271 2.97138C56.1959 2.74973 58 4.37091 58 6.45147V30.4057C58 32.1943 56.6514 33.6952 54.8729 33.8858L6.87286 39.0286C4.80415 39.2503 3 37.6291 3 35.5485V11.5943Z" fill="white" stroke="#A3ABAF"/>
<path opacity="0.8" d="M10.5 14.8932C10.5 14.3844 10.882 13.9568 11.3875 13.8995L35.8875 11.1259C36.4806 11.0588 37 11.5228 37 12.1196V13.1068C37 13.6156 36.618 14.0432 36.1125 14.1005L11.6125 16.8741C11.0194 16.9412 10.5 16.4772 10.5 15.8804V14.8932Z" fill="#9EADB4"/>
<path opacity="0.8" d="M10.5 19.8875C10.5 19.382 10.8796 18.957 11.3819 18.9002L35.8946 16.1251C36.4839 16.0584 37 16.5194 37 17.1125C37 17.618 36.6204 18.043 36.1181 18.0998L11.6054 20.8749C11.0161 20.9416 10.5 20.4806 10.5 19.8875Z" fill="#9EADB4"/>
<path opacity="0.8" d="M10.5 25.8932C10.5 25.3844 10.882 24.9568 11.3875 24.8995L35.8875 22.1259C36.4806 22.0588 37 22.5228 37 23.1196V24.1068C37 24.6156 36.618 25.0432 36.1125 25.1005L11.6125 27.8741C11.0194 27.9412 10.5 27.4772 10.5 26.8804V25.8932Z" fill="#9EADB4"/>
<path opacity="0.8" d="M10.5 30.8896C10.5 30.3831 10.8808 29.9577 11.3841 29.9018L31.8964 27.6226C32.4851 27.5572 33 28.0181 33 28.6104C33 29.1169 32.6192 29.5423 32.1159 29.5982L11.6036 31.8774C11.0149 31.9428 10.5 31.4819 10.5 30.8896Z" fill="#9EADB4"/>
</svg>
