<svg width="47" height="47" viewBox="0 0 47 47" fill="none" xmlns="http://www.w3.org/2000/svg">
<path d="M19.8335 3.44168V27.1667H43.5585C42.473 38.1148 33.2343 46.6667 22.0002 46.6667C10.0337 46.6667 0.333496 36.9665 0.333496 25C0.333496 13.7658 8.88533 4.52718 19.8335 3.44168ZM24.1668 0.176514C36.1983 1.21001 45.788 10.8018 46.8237 22.8333H24.1668V0.176514Z" fill="#9BD8CD"/>
</svg>
