<svg width="42" height="44" viewBox="0 0 42 44" fill="none" xmlns="http://www.w3.org/2000/svg">
<path d="M13.5 34.9999H2.66667V17.6666H13.5V34.9999ZM26.5 34.9999H15.6667V8.99992H26.5V34.9999ZM39.5 34.9999H28.6667V0.333252H39.5V34.9999ZM41.6667 43.6666H0.5V39.3332H41.6667V43.6666Z" fill="#9BD8CD"/>
</svg>
